[{
  "_id": {
    "$oid": "62cee8464393855ac4246ac6"
  },
  "createdAt": {
    "$date": {
      "$numberLong": "1657726903059"
    }
  },
  "createdAtString": "13 липня 2022 р., 18:41",
  "senderId": {
    "$oid": "62c1f7936cc18e93d0e65875"
  },
  "recipientId": {
    "$oid": "62aeed60bee8c84fc0ed3fd4"
  },
  "content": "Hello, I have a question about this product <a href=\"http://127.0.0.1:3000/products/cases/61e4736832e41634e89027b6\">посилання</a>",
  "__v": 0
},{
  "_id": {
    "$oid": "62cee8f14393855ac4246b3d"
  },
  "createdAt": {
    "$date": {
      "$numberLong": "1657726903059"
    }
  },
  "createdAtString": "13 липня 2022 р., 18:41",
  "senderId": {
    "$oid": "62c1f7936cc18e93d0e65875"
  },
  "recipientId": {
    "$oid": "62aeed60bee8c84fc0ed3fd4"
  },
  "content": "Is it suitable for small bag?",
  "__v": 0
},{
  "_id": {
    "$oid": "62ceea72c958206040e5cb62"
  },
  "createdAt": {
    "$date": {
      "$numberLong": "1657727556138"
    }
  },
  "createdAtString": "13 липня 2022 р., 18:52",
  "senderId": {
    "$oid": "62c1f7936cc18e93d0e65875"
  },
  "recipientId": {
    "$oid": "62aeed60bee8c84fc0ed3fd4"
  },
  "content": "Can u?)",
  "__v": 0
},{
  "_id": {
    "$oid": "62cf4146b1162a668c111ec5"
  },
  "createdAt": {
    "$date": {
      "$numberLong": "1657749706457"
    }
  },
  "createdAtString": "14 липня 2022 р., 01:01",
  "senderId": {
    "$oid": "62cdeb3365667756105bd533"
  },
  "recipientId": {
    "$oid": "62aeed60bee8c84fc0ed3fd4"
  },
  "content": "<a href=\"http://127.0.0.1:3000/products/cases/61e4736832e41634e89027b6\">посилання</a>",
  "__v": 0
},{
  "_id": {
    "$oid": "62cee5dbdfda92035c0ee183"
  },
  "createdAt": {
    "$date": {
      "$numberLong": "1657726374744"
    }
  },
  "createdAtString": "13 липня 2022 р., 18:32",
  "senderId": {
    "$oid": "62cdeb3365667756105bd533"
  },
  "recipientId": {
    "$oid": "62aeed60bee8c84fc0ed3fd4"
  },
  "content": "Hello, I have some question for u. Can you help me?",
  "__v": 0
}]