[{
  "_id": {
    "$oid": "61be37e2203fff14f0c69c45"
  },
  "name": "Admin",
  "email": "admin@gmail.com",
  "password": "$2a$12$QimsxsXVF3dFxlixCtnnlONlu.IycKyRWpC5JJ1rrKJIymcvunn7u",
  "__v": 0,
  "isAdmin": true
},{
  "_id": {
    "$oid": "61e47f4818253d196823bbff"
  },
  "avatar": "052467e4-ddfe-4d5c-a82e-6f97893c0024.jpg",
  "isAdmin": false,
  "active": true,
  "name": "Daria Bilkevych",
  "email": "main02@gmail.com",
  "password": "$2a$12$kbPQSmrF4WAhJnNSC0K3y.np1H23pcEYTek8ZxRMzj3GeCGmazbD2",
  "__v": 0,
  "passwordChangedAt": {
    "$date": {
      "$numberLong": "1642409961080"
    }
  }
},{
  "_id": {
    "$oid": "61e4bfb2739843301cd26ea9"
  },
  "avatar": "default_avatar.jpg",
  "isAdmin": false,
  "active": true,
  "name": "Nelly",
  "email": "goodperson@gmail.com",
  "password": "$2a$12$UNVYIqjLWePOmAAVSRN4fOdVQnBt3CE2iwxifD8pGGnRVBGM73RXO",
  "__v": 0
},{
  "_id": {
    "$oid": "61e5375e6dbf0f395cb81e9e"
  },
  "avatar": "f9da7ab7-2bad-4aa1-b9fe-62baa49e2948.png",
  "isAdmin": false,
  "active": true,
  "name": "Nata",
  "email": "user@gmail.com",
  "password": "$2a$12$oKTJ1KW3uIee4WypsS8fwuk493hqvK2CkMOq5sGVBpohp93CDSqiG",
  "__v": 0
},{
  "_id": {
    "$oid": "61e541289403425040a384a7"
  },
  "avatar": "bdd10b17-c329-4714-88a9-3abfb9a4f3a2.png",
  "isAdmin": false,
  "active": true,
  "name": "Billyyy",
  "email": "user1@gmail.com",
  "password": "$2a$12$MRm0Vv6rgtAV.IDOi1oI/OVKFkPfFlqahgjUvYQ5ANrZwpm.isCRO",
  "__v": 0,
  "passwordChangedAt": {
    "$date": {
      "$numberLong": "1642414425338"
    }
  }
},{
  "_id": {
    "$oid": "61f96d84342291605495886c"
  },
  "avatar": "default_avatar.jpg",
  "isAdmin": false,
  "active": true,
  "name": "Nata",
  "email": "jabko013@gmail.com",
  "password": "$2a$12$KZ.5NP5T0SDO8RzNXKlgkeF7vl084/26GL/5.r9EVnPxyHZlgcFq2",
  "__v": 0
},{
  "_id": {
    "$oid": "6200234e6eb4f816d43808b9"
  },
  "avatar": "7df35cae-d2b1-40f3-bb1b-0bc8a94c3c1e.jpg",
  "isAdmin": false,
  "active": true,
  "name": "Daria",
  "email": "mfbj@gmail.com",
  "password": "$2a$12$QKwcsAuxNnPgPc1QJu4qlO9.dNs1dLfA1XwXHqARY9gxUxaCtJTWK",
  "__v": 0
},{
  "_id": {
    "$oid": "6204ef78ff703f18946cea6b"
  },
  "avatar": "8a430338-87aa-4c44-9f39-2cb2f7374ec0.jpg",
  "isAdmin": false,
  "active": true,
  "name": "Maria",
  "email": "maria001@gmail.com",
  "password": "$2a$12$7fvauqIUnAoGh9wVaDq9Qeh0FrkBI4aH70DJXAVBstjXSYERxFUa2",
  "__v": 0,
  "isModerator": false,
  "passwordChangedAt": {
    "$date": {
      "$numberLong": "1657661146863"
    }
  }
},{
  "_id": {
    "$oid": "625b20f7562fc30650951916"
  },
  "avatar": "default_avatar.jpg",
  "isAdmin": false,
  "active": true,
  "name": "Dasha",
  "email": "jabko0137@gmail.com",
  "password": "$2a$12$iu82GeHhZ/vUxrgz8TToQO5mjlN2DRJ.WdQpt57BLGpiIeJ0byS46",
  "__v": 0,
  "passwordChangedAt": {
    "$date": {
      "$numberLong": "1654337444155"
    }
  },
  "isModerator": false
},{
  "_id": {
    "$oid": "62aeed60bee8c84fc0ed3fd4"
  },
  "avatar": "default_avatar.jpg",
  "isAdmin": false,
  "isModerator": true,
  "active": true,
  "name": "Moderator",
  "email": "moderator@gmail.com",
  "password": "$2a$12$Splla4VPVidinIETzMJiHeKrXmbHEO5.8wzzrjUvKWbqDG8BPYF0i",
  "__v": 0
},{
  "_id": {
    "$oid": "62aef34015626f1738c431fb"
  },
  "avatar": "default_avatar.jpg",
  "isAdmin": false,
  "isModerator": false,
  "active": true,
  "name": "Billy",
  "email": "gvhg@gmail.com",
  "password": "$2a$12$7kwyzeOQ9mTBBx74/efLL.O2LcGU7XJbb3pUPghhkfBkkI3TKEnji",
  "__v": 0
},{
  "_id": {
    "$oid": "62aeffb4a911ae2998b0fa13"
  },
  "avatar": "default_avatar.jpg",
  "isAdmin": false,
  "isModerator": false,
  "active": true,
  "name": "Andrey",
  "email": "adrey98@gmail.com",
  "password": "$2a$12$uZ9SyP7UnqPusp8Mg/X39.guBqeGs6pCeZudJe0kQg1Vpme6Oe6xO",
  "__v": 0
},{
  "_id": {
    "$oid": "62af08612926df16b0ff11a8"
  },
  "avatar": "default_avatar.jpg",
  "isAdmin": false,
  "isModerator": false,
  "active": true,
  "name": "Amibeth",
  "email": "amibeth@gmail.com",
  "password": "$2a$12$oDoj/z8QxH0n2waXr5D8uOEofX4manwnTkusDbxg0MVAWUgMIfrQa",
  "__v": 0
},{
  "_id": {
    "$oid": "62b63058ca4f47032cb4e233"
  },
  "avatar": "default_avatar.jpg",
  "isAdmin": false,
  "isModerator": false,
  "active": true,
  "name": "Dracke",
  "email": "dracke1@gmail.com",
  "password": "$2a$12$L0Eu0/X5pf2azfvOlVCbveWxR1HHvZI1/w.jptq5aMrsAWHkyxLVy",
  "__v": 0
},{
  "_id": {
    "$oid": "62bc89dccaa4ad5d30d56594"
  },
  "avatar": "default_avatar.jpg",
  "isAdmin": false,
  "isModerator": false,
  "active": true,
  "name": "Linda",
  "email": "linda86@gmail.com",
  "password": "$2a$12$lysKUDYglE2m15AESnf.G.gK7UglzS8yKtSIU6dYGSTuNqgAGV3ny",
  "__v": 0
},{
  "_id": {
    "$oid": "62c1f7936cc18e93d0e65875"
  },
  "avatar": "default_avatar.jpg",
  "isAdmin": false,
  "isModerator": false,
  "active": true,
  "name": "Michael",
  "email": "mickle_9@gmail.com",
  "password": "$2a$12$WUg7CF/h3Iv9X86r8HZIIOJrNcEI0VR24DEPNiYJlWnt.eJ0Vd0W6",
  "__v": 0
},{
  "_id": {
    "$oid": "62c5e091693dc64d640c296a"
  },
  "avatar": "default_avatar.jpg",
  "isAdmin": false,
  "isModerator": false,
  "active": true,
  "name": "Dasha",
  "email": "ipz202_bdv@student.ztu.edu.ua",
  "password": "$2a$12$zXAtxMoNRa1l8q16j2eIz.nfHRv2Y.YLPXeRbGsxFLAzvo35G6wmS",
  "__v": 0,
  "passwordChangedAt": {
    "$date": {
      "$numberLong": "1657560067674"
    }
  }
},{
  "_id": {
    "$oid": "62cdeb3365667756105bd533"
  },
  "avatar": "default_avatar.jpg",
  "isAdmin": false,
  "isModerator": false,
  "active": true,
  "name": "Omely",
  "email": "omely098@gmail.com",
  "password": "$2a$12$WMDvvFWl5zxjWEd4j3uPlOSILAB7XYExupkrgvwQPpdP4DzUxxAFO",
  "__v": 0
}]